{
	"info": {
		"_postman_id": "3d637552-99e1-4635-90c7-78a2c2e8924c",
		"name": "SPRINT 2",
		"schema": "https://schema.getpostman.com/json/collection/v2.1.0/collection.json"
	},
	"item": [
		{
			"name": "OCR SERVICES",
			"item": [
				{
					"name": "AADHAR FRONT",
					"event": [
						{
							"listen": "test",
							"script": {
								"exec": [
									"pm.test(\"Status code is 200\", function () {\r",
									"    pm.response.to.have.status(200);\r",
									"});\r",
									"pm.test(\"Body contains valid attributes of Aadhar details present on Front\",() => {\r",
									"  pm.expect(pm.response.text()).to.include(\"dob\");\r",
									"  pm.expect(pm.response.text()).to.include(\"aadhar\");\r",
									"  pm.expect(pm.response.text()).to.include(\"gender\");\r",
									"  pm.expect(pm.response.text()).to.include(\"name\");\r",
									"    \r",
									"});\r",
									""
								],
								"type": "text/javascript"
							}
						}
					],
					"request": {
						"auth": {
							"type": "noauth"
						},
						"method": "POST",
						"header": [],
						"body": {
							"mode": "formdata",
							"formdata": [
								{
									"key": "Image",
									"type": "file",
									"src": "/D:/Work/OCR-PAN AADHAR Images/papa front.png"
								}
							],
							"options": {
								"raw": {
									"language": "json"
								}
							}
						},
						"url": {
							"raw": "https://56gorl3kei.execute-api.ap-south-1.amazonaws.com/dev/aadharFront",
							"protocol": "https",
							"host": [
								"56gorl3kei",
								"execute-api",
								"ap-south-1",
								"amazonaws",
								"com"
							],
							"path": [
								"dev",
								"aadharFront"
							]
						}
					},
					"response": []
				},
				{
					"name": "PAN",
					"event": [
						{
							"listen": "test",
							"script": {
								"exec": [
									"pm.test(\"Status code is 200\", function () {\r",
									"    pm.response.to.have.status(200);\r",
									"});\r",
									"pm.test(\"Body contains valid PAN details\",() => {\r",
									"  pm.expect(pm.response.text()).to.include(\"name\");\r",
									"  pm.expect(pm.response.text()).to.include(\"father\");\r",
									"  pm.expect(pm.response.text()).to.include(\"pan\");\r",
									"  pm.expect(pm.response.text()).to.include(\"dob\");\r",
									"    \r",
									"});"
								],
								"type": "text/javascript"
							}
						}
					],
					"request": {
						"method": "POST",
						"header": [],
						"body": {
							"mode": "formdata",
							"formdata": [
								{
									"key": "Image",
									"type": "file",
									"src": "/D:/Work/OCR-PAN AADHAR Images/sandesh new pan.jpg"
								}
							],
							"options": {
								"raw": {
									"language": "json"
								}
							}
						},
						"url": {
							"raw": "https://56gorl3kei.execute-api.ap-south-1.amazonaws.com/dev/newPan",
							"protocol": "https",
							"host": [
								"56gorl3kei",
								"execute-api",
								"ap-south-1",
								"amazonaws",
								"com"
							],
							"path": [
								"dev",
								"newPan"
							]
						}
					},
					"response": []
				},
				{
					"name": "AADHAR BACK",
					"event": [
						{
							"listen": "test",
							"script": {
								"exec": [
									"pm.test(\"Body contains valid attributes of Aadhar Back details\",() => {\r",
									"  pm.expect(pm.response.text()).to.include(\"address\");\r",
									"  pm.expect(pm.response.text()).to.include(\"aadhar\");\r",
									"   \r",
									"  \r",
									"});\r",
									"var data = pm.response.json();\r",
									"\r",
									"pm.test( \"Length of address should not be null\",data.length, function () {\r",
									"    pm.expect(data.length)<0;\r",
									"});\r",
									""
								],
								"type": "text/javascript"
							}
						}
					],
					"protocolProfileBehavior": {
						"disabledSystemHeaders": {}
					},
					"request": {
						"auth": {
							"type": "basic",
							"basic": [
								{
									"key": "username",
									"value": "abcduoieau",
									"type": "string"
								},
								{
									"key": "password",
									"value": "kuhoahiwad",
									"type": "string"
								}
							]
						},
						"method": "POST",
						"header": [],
						"body": {
							"mode": "formdata",
							"formdata": [
								{
									"key": "Image",
									"type": "file",
									"src": "/D:/Work/OCR-PAN AADHAR Images/adhar back.png"
								}
							],
							"options": {
								"raw": {
									"language": "json"
								}
							}
						},
						"url": {
							"raw": "https://56gorl3kei.execute-api.ap-south-1.amazonaws.com/dev/aadharBack",
							"protocol": "https",
							"host": [
								"56gorl3kei",
								"execute-api",
								"ap-south-1",
								"amazonaws",
								"com"
							],
							"path": [
								"dev",
								"aadharBack"
							]
						}
					},
					"response": []
				},
				{
					"name": "OLD PAN",
					"event": [
						{
							"listen": "test",
							"script": {
								"exec": [
									"pm.test(\"Status code is 200 OK\", function () {\r",
									"    pm.response.to.have.status(200);\r",
									"});\r",
									"\r",
									"pm.test(\"Body contains valid attributes of consumer present in OLD PAN\",() => {\r",
									"  pm.expect(pm.response.text()).to.include(\"name\");\r",
									"  pm.expect(pm.response.text()).to.include(\"father\");\r",
									"  pm.expect(pm.response.text()).to.include(\"pan\");\r",
									"  pm.expect(pm.response.text()).to.include(\"dob\");\r",
									"  \r",
									"  \r",
									"});"
								],
								"type": "text/javascript"
							}
						}
					],
					"request": {
						"auth": {
							"type": "basic",
							"basic": [
								{
									"key": "username",
									"value": "abcduoieau",
									"type": "string"
								},
								{
									"key": "password",
									"value": "kuhoahiwad",
									"type": "string"
								}
							]
						},
						"method": "POST",
						"header": [],
						"body": {
							"mode": "formdata",
							"formdata": [
								{
									"key": "Image",
									"type": "file",
									"src": "/D:/Work/OCR-PAN AADHAR Images/sandesh fatherpan.jpg"
								}
							],
							"options": {
								"raw": {
									"language": "json"
								}
							}
						},
						"url": {
							"raw": "https://56gorl3kei.execute-api.ap-south-1.amazonaws.com/dev/oldPan",
							"protocol": "https",
							"host": [
								"56gorl3kei",
								"execute-api",
								"ap-south-1",
								"amazonaws",
								"com"
							],
							"path": [
								"dev",
								"oldPan"
							]
						}
					},
					"response": []
				}
			]
		},
		{
			"name": "Transformation Layer Copy",
			"item": [
				{
					"name": "Get Quotes",
					"event": [
						{
							"listen": "test",
							"script": {
								"exec": [
									"pm.test(\"Body contains valid insurance details\",() => {\r",
									"  pm.expect(pm.response.text()).to.include(\"name\");\r",
									"  pm.expect(pm.response.text()).to.include(\"birthday\");\r",
									"  pm.expect(pm.response.text()).to.include(\"gender\");\r",
									"  pm.expect(pm.response.text()).to.include(\"employed\");\r",
									"  pm.expect(pm.response.text()).to.include(\"address\");\r",
									"  pm.expect(pm.response.text()).to.include(\"maritalStatus\");\r",
									"  pm.expect(pm.response.text()).to.include(\"phone no.\");\r",
									"  \r",
									"});\r",
									"pm.test(\"Status code is 200\", function () {\r",
									"    pm.response.to.have.status(200);\r",
									"});"
								],
								"type": "text/javascript"
							}
						}
					],
					"request": {
						"method": "GET",
						"header": [],
						"url": {
							"raw": "https://8y3b43g274.execute-api.ap-south-1.amazonaws.com/staging/insurance/lifeinsurance/v1/getquotes",
							"protocol": "https",
							"host": [
								"8y3b43g274",
								"execute-api",
								"ap-south-1",
								"amazonaws",
								"com"
							],
							"path": [
								"staging",
								"insurance",
								"lifeinsurance",
								"v1",
								"getquotes"
							]
						}
					},
					"response": []
				},
				{
					"name": "Consumer to Provider Transformation",
					"event": [
						{
							"listen": "test",
							"script": {
								"exec": [
									"pm.test(\"Status code is 200\", function () {\r",
									"    pm.response.to.have.status(200);\r",
									"});\r",
									"pm.test(\"Body produces Provider JSON\",() => {\r",
									"  pm.expect(pm.response.text()).to.include(\"ProviderJson\");\r",
									"  pm.expect(pm.response.text()).to.include(\"FullAddress\");\r",
									"  pm.expect(pm.response.text()).to.include(\"AgeInYears\");\r",
									"  pm.expect(pm.response.text()).to.include(\"DOB\");\r",
									"  pm.expect(pm.response.text()).to.include(\"FullName\");\r",
									"  pm.expect(pm.response.text()).to.include(\"IsAdult\");\r",
									"  pm.expect(pm.response.text()).to.include(\"Gender\");\r",
									"  \r",
									"});\r",
									"pm.test(\"Body produces Provider JSON\",() => {\r",
									"  pm.expect(pm.response.text()).to.include(\"ConsumerJson\");\r",
									"  pm.expect(pm.response.text()).to.include(\"birthday\");\r",
									"  pm.expect(pm.response.text()).to.include(\"address\");\r",
									"  pm.expect(pm.response.text()).to.include(\"gender\");\r",
									"  pm.expect(pm.response.text()).to.include(\"name\");\r",
									"  pm.expect(pm.response.text()).to.include(\"phone no.\");\r",
									"  pm.expect(pm.response.text()).to.include(\"maritalStatus\");\r",
									"  pm.expect(pm.response.text()).to.include(\"employed\");\r",
									"  \r",
									"});"
								],
								"type": "text/javascript"
							}
						}
					],
					"request": {
						"auth": {
							"type": "basic",
							"basic": [
								{
									"key": "password",
									"value": "test_secret",
									"type": "string"
								},
								{
									"key": "username",
									"value": "test_key",
									"type": "string"
								}
							]
						},
						"method": "GET",
						"header": [
							{
								"warning": "This is a duplicate header and will be overridden by the Authorization header generated by Postman.",
								"key": "Authorization",
								"value": "Basic test_secret",
								"type": "text"
							}
						],
						"url": {
							"raw": "http://localhost:8081/insurance/literm/v1/customers",
							"protocol": "http",
							"host": [
								"localhost"
							],
							"port": "8081",
							"path": [
								"insurance",
								"literm",
								"v1",
								"customers"
							]
						}
					},
					"response": []
				}
			]
		}
	]
}